syn_tb.vcd
$date
	Fri Jan 29 16:55:09 2021
$end
$version
	Icarus Verilog
$end
$timescale
	1ns
$end
$scope module sync_tb $end
$var wire 1 ! sync_clk $end
$var wire 1 " out $end
$var wire 4 # data_out_in [3:0] $end
$var wire 4 $ data_out [3:0] $end
$var reg 1 % en $end
$var reg 1 & fast_clk $end
$var reg 1 ' rst $end
$var reg 1 ( slow_clk $end
$scope module c_sl $end
$var wire 1 ( clk $end
$var wire 1 % en $end
$var wire 1 ' rst $end
$var reg 4 ) count [3:0] $end
$var reg 4 * data_out [3:0] $end
$var reg 1 " out $end
$upscope $end
$scope module sy $end
$var wire 4 + data_in [3:0] $end
$var wire 1 & fast_clk $end
$var wire 1 " out $end
$var wire 1 ' rst $end
$var wire 1 ( slow_clk $end
$var wire 1 ! sync_clk $end
$var reg 1 , a $end
$var reg 1 - b $end
$var reg 1 . c $end
$var reg 1 / d $end
$var reg 4 0 data_out [3:0] $end
$upscope $end
$upscope $end
$enddefinitions $end
#0
$dumpvars
bx 0
x/
x.
x-
x,
bx +
bx *
bx )
0(
x'
0&
x%
bx $
bx #
x"
x!
$end
#4
1&
#5
0!
0,
b0 )
0"
b0 #
b0 *
b0 +
0/
0.
0-
1'
#8
0&
#12
b0 $
b0 0
1&
#16
0&
#20
1&
#21
1(
#24
0&
#28
1&
#32
0&
#36
1&
#40
0&
#42
0(
#44
1&
#48
0&
#52
1&
#56
0&
#60
1&
#63
1(
#64
0&
#67
1%
0'
#68
1&
#72
0&
#76
1&
#80
0&
#84
1&
0(
#88
0&
#92
1&
#96
0&
#100
1&
#104
0&
#105
1"
b1 )
1(
#108
1&
#112
0&
#116
1&
#120
0&
#124
1&
#126
0(
#128
0&
#132
1&
#136
0&
#140
1&
#144
0&
#147
1,
b1 #
b1 *
b1 +
b10 )
1(
#148
1-
1&
#152
0&
#156
1!
1.
1&
#160
0&
#164
0!
b1 $
b1 0
1/
1&
#168
0&
0(
#172
1&
#176
0&
#180
1&
#184
0&
#188
1&
#189
b10 #
b10 *
b10 +
b11 )
0,
1(
#192
0&
#196
0-
1&
#200
0&
#204
1!
0.
1&
#208
0&
#210
0(
#212
0!
b10 $
b10 0
0/
1&
#216
0&
#220
1&
#224
0&
#228
1&
#231
1,
b11 #
b11 *
b11 +
b100 )
1(
#232
0&
#236
1-
1&
#240
0&
#244
1!
1.
1&
#248
0&
#252
0!
b11 $
b11 0
1/
1&
0(
#256
0&
#260
1&
#264
0&
#268
1&
#272
0&
#273
b100 #
b100 *
b100 +
b101 )
0,
1(
#276
0-
1&
#280
0&
#284
1!
0.
1&
#288
0&
#292
0!
b100 $
b100 0
0/
1&
#294
0(
#296
0&
#300
1&
#304
0&
#308
1&
#312
0&
#315
1,
b101 #
b101 *
b101 +
b110 )
1(
#316
1-
1&
#320
0&
#324
1!
1.
1&
#328
0&
#332
0!
b101 $
b101 0
1/
1&
#336
0&
0(
#340
1&
#344
0&
#348
1&
#352
0&
#356
1&
#357
b110 #
b110 *
b110 +
b111 )
0,
1(
#360
0&
#364
0-
1&
#368
0&
#372
1!
0.
1&
#376
0&
#378
0(
#380
0!
b110 $
b110 0
0/
1&
#384
0&
#388
1&
#392
0&
#396
1&
#399
1,
b111 #
b111 *
b111 +
b1000 )
1(
#400
0&
#404
1-
1&
#408
0&
#412
1!
1.
1&
#416
0&
#420
0!
b111 $
b111 0
1/
1&
0(
#424
0&
#428
1&
#432
0&
#436
1&
#440
0&
#441
b1000 #
b1000 *
b1000 +
b1001 )
0,
1(
#444
0-
1&
#448
0&
#452
1!
0.
1&
#456
0&
#460
0!
b1000 $
b1000 0
0/
1&
#462
0(
#464
0&
#468
1&
#472
0&
#476
1&
#480
0&
#483
1,
b1001 #
b1001 *
b1001 +
b1010 )
1(
#484
1-
1&
#488
0&
#492
1!
1.
1&
#496
0&
#500
0!
b1001 $
b1001 0
1/
1&
#504
0&
0(
#508
1&
#512
0&
#516
1&
#520
0&
#524
1&
#525
b1010 #
b1010 *
b1010 +
b1011 )
0,
1(
#528
0&
#532
0-
1&
#536
0&
#540
1!
0.
1&
#544
0&
#546
0(
#548
0!
b1010 $
b1010 0
0/
1&
#552
0&
#556
1&
#560
0&
#564
1&
#567
1,
b1011 #
b1011 *
b1011 +
b1100 )
1(
#568
0&
#572
1-
1&
#576
0&
#580
1!
1.
1&
#584
0&
#588
0!
b1011 $
b1011 0
1/
1&
0(
#592
0&
#596
1&
#600
0&
#604
1&
#608
0&
#609
b1100 #
b1100 *
b1100 +
b1101 )
0,
1(
#612
0-
1&
#616
0&
#620
1!
0.
1&
#624
0&
#628
0!
b1100 $
b1100 0
0/
1&
#630
0(
#632
0&
#636
1&
#640
0&
#644
1&
#648
0&
#651
1,
b1101 #
b1101 *
b1101 +
b1110 )
1(
#652
1-
1&
#656
0&
#660
1!
1.
1&
#664
0&
#668
0!
b1101 $
b1101 0
1/
1&
#672
0&
0(
#676
1&
#680
0&
#684
1&
#688
0&
#692
1&
#693
b1110 #
b1110 *
b1110 +
b1111 )
0,
1(
#696
0&
#700
0-
1&
#704
0&
#708
1!
0.
1&
#712
0&
#714
0(
#716
0!
b1110 $
b1110 0
0/
1&
#720
0&
#724
1&
#728
0&
#732
1&
#735
1,
b1111 #
b1111 *
b1111 +
b0 )
1(
#736
0&
#740
1-
1&
#744
0&
#748
1!
1.
1&
#752
0&
#756
0!
b1111 $
b1111 0
1/
1&
0(
#760
0&
#764
1&
#768
0&
#772
1&
#776
0&
#777
b0 #
b0 *
b0 +
b1 )
0,
1(
#780
0-
1&
#784
0&
#788
1!
0.
1&
#792
0&
#796
0!
b0 $
b0 0
0/
1&
#798
0(
#800
0&
#804
1&
#808
0&
#812
1&
#816
0&
#819
1,
b1 #
b1 *
b1 +
b10 )
1(
#820
1-
1&
#824
0&
#828
1!
1.
1&
#832
0&
#836
0!
b1 $
b1 0
1/
1&
#840
0&
0(
#844
1&
#848
0&
#852
1&
#856
0&
#860
1&
#861
b10 #
b10 *
b10 +
b11 )
0,
1(
#864
0&
#868
0-
1&
#872
0&
#876
1!
0.
1&
#880
0&
#882
0(
#884
0!
b10 $
b10 0
0/
1&
#888
0&
#892
1&
#896
0&
#900
1&
#903
1,
b11 #
b11 *
b11 +
b100 )
1(
#904
0&
#908
1-
1&
#912
0&
#916
1!
1.
1&
#920
0&
#924
0!
b11 $
b11 0
1/
1&
0(
#928
0&
#932
1&
#936
0&
#940
1&
#944
0&
#945
b100 #
b100 *
b100 +
b101 )
0,
1(
#948
0-
1&
#952
0&
#956
1!
0.
1&
#960
0&
#964
0!
b100 $
b100 0
0/
1&
#966
0(
#968
0&
#972
1&
#976
0&
#980
1&
#984
0&
#987
1,
b101 #
b101 *
b101 +
b110 )
1(
#988
1-
1&
#992
0&
#996
1!
1.
1&
#1000
0&
#1004
0!
b101 $
b101 0
1/
1&
#1008
0&
0(
#1012
1&
#1016
0&
#1020
1&
#1024
0&
#1028
1&
#1029
b110 #
b110 *
b110 +
b111 )
0,
1(
#1032
0&
#1036
0-
1&
#1040
0&
#1044
1!
0.
1&
#1048
0&
#1050
0(
#1052
0!
b110 $
b110 0
0/
1&
#1056
0&
#1060
1&
#1064
0&
#1068
1&
#1071
1,
b111 #
b111 *
b111 +
b1000 )
1(
#1072
0&
#1076
1-
1&
#1080
0&
#1084
1!
1.
1&
#1088
0&
#1092
0!
b111 $
b111 0
1/
1&
0(
#1096
0&
#1100
1&
#1104
0&
#1108
1&
#1112
0&
#1113
b1000 #
b1000 *
b1000 +
b1001 )
0,
1(
#1116
0-
1&
#1120
0&
#1124
1!
0.
1&
#1128
0&
#1132
0!
b1000 $
b1000 0
0/
1&
#1134
0(
#1136
0&
#1140
1&
#1144
0&
#1148
1&
#1152
0&
#1155
1,
b1001 #
b1001 *
b1001 +
b1010 )
1(
#1156
1-
1&
#1160
0&
#1164
1!
1.
1&
#1168
0&
#1172
0!
b1001 $
b1001 0
1/
1&
#1176
0&
0(
#1180
1&
#1184
0&
#1188
1&
#1192
0&
#1196
1&
#1197
b1010 #
b1010 *
b1010 +
b1011 )
0,
1(
#1200
0&
#1204
0-
1&
#1208
0&
#1212
1!
0.
1&
#1216
0&
#1218
0(
#1220
0!
b1010 $
b1010 0
0/
1&
#1224
0&
#1228
1&
#1232
0&
#1236
1&
#1239
1,
b1011 #
b1011 *
b1011 +
b1100 )
1(
#1240
0&
#1244
1-
1&
#1248
0&
#1252
1!
1.
1&
#1256
0&
#1260
0!
b1011 $
b1011 0
1/
1&
0(
#1264
0&
#1268
1&
#1272
0&
#1276
1&
#1280
0&
#1281
b1100 #
b1100 *
b1100 +
b1101 )
0,
1(
#1284
0-
1&
#1288
0&
#1292
1!
0.
1&
#1296
0&
#1300
0!
b1100 $
b1100 0
0/
1&
#1302
0(
#1304
0&
#1308
1&
#1312
0&
#1316
1&
#1320
0&
#1323
1,
b1101 #
b1101 *
b1101 +
b1110 )
1(
#1324
1-
1&
#1328
0&
#1332
1!
1.
1&
#1336
0&
#1340
0!
b1101 $
b1101 0
1/
1&
#1344
0&
0(
#1348
1&
#1352
0&
#1356
1&
#1360
0&
#1364
1&
#1365
b1110 #
b1110 *
b1110 +
b1111 )
0,
1(
#1368
0&
#1372
0-
1&
#1376
0&
#1380
1!
0.
1&
#1384
0&
#1386
0(
#1388
0!
b1110 $
b1110 0
0/
1&
#1392
0&
#1396
1&
#1400
0&
#1404
1&
#1407
1,
b1111 #
b1111 *
b1111 +
b0 )
1(
#1408
0&
#1412
1-
1&
#1416
0&
#1420
1!
1.
1&
#1424
0&
#1428
0!
b1111 $
b1111 0
1/
1&
0(
#1432
0&
#1436
1&
#1440
0&
#1444
1&
#1448
0&
#1449
b0 #
b0 *
b0 +
b1 )
0,
1(
#1452
0-
1&
#1456
0&
#1460
1!
0.
1&
#1464
0&
#1468
0!
b0 $
b0 0
0/
1&
#1470
0(
#1472
0&
#1476
1&
#1480
0&
#1484
1&
#1488
0&
#1491
1,
b1 #
b1 *
b1 +
b10 )
1(
#1492
1-
1&
#1496
0&
#1500
1!
1.
1&
